Lab 10 - Advanced Time Series Forecasting (using R)
…
In this lab exercise, you are going to carry out sentiment analysis from
the critics for Animal Crossing - New Horizons. You shall use the
following code snippet (and include them upfront in your R file) for
this lab session:

library(ggrepel)
library(tidytext)
library(tidyverse)
rm_words <- c("animal", "crossing", "horizons", "game", "nintendo", 
  "switch", "series", "island")
critic <- read_tsv("data/animal-crossing/critic.tsv")
critic

#> # A tibble: 107 x 4
#>    grade publication    text                                date      
#>    <dbl> <chr>          <chr>                               <date>    
#>  1   100 Pocket Gamer … Animal Crossing; New Horizons, muc… 2020-03-16
#>  2   100 Forbes         Know that if you’re overwhelmed wi… 2020-03-16
#>  3   100 Telegraph      With a game this broad and lengthy… 2020-03-16
#>  4   100 VG247          Animal Crossing: New Horizons is e… 2020-03-16
#>  5   100 Nintendo Insi… Above all else, Animal Crossing: N… 2020-03-16
#>  6   100 Trusted Revie… Animal Crossing: New Horizons is t… 2020-03-16
#>  7   100 VGC            Nintendo's comforting life sim is … 2020-03-16
#>  8   100 God is a Geek  A beautiful, welcoming game that i… 2020-03-16
#>  9   100 Nintendo Life  Animal Crossing: New Horizons take… 2020-03-16
#> 10   100 Daily Star     Similar to how Breath of the Wild … 2020-03-16
#> # … with 97 more rows
…
You’re required to use relative file paths
data/animal-crossing/critic.tsv to import these data. NO marks
will be given to this lab for using URL links or different file
paths.

Question 1

Tokenise the text column from critic into the word column as
one-word-per-row.

You should end up with a tibble called critic_tokens.

critic_tokens

#> # A tibble: 5,741 x 4
#>    grade publication     date       word        
#>    <dbl> <chr>           <date>     <chr>       
#>  1   100 Pocket Gamer UK 2020-03-16 animal      
#>  2   100 Pocket Gamer UK 2020-03-16 crossing    
#>  3   100 Pocket Gamer UK 2020-03-16 new         
#>  4   100 Pocket Gamer UK 2020-03-16 horizons    
#>  5   100 Pocket Gamer UK 2020-03-16 much        
#>  6   100 Pocket Gamer UK 2020-03-16 like        
#>  7   100 Pocket Gamer UK 2020-03-16 its         
#>  8   100 Pocket Gamer UK 2020-03-16 predecessors
#>  9   100 Pocket Gamer UK 2020-03-16 operates    
#> 10   100 Pocket Gamer UK 2020-03-16 outside     
#> # … with 5,731 more rows

Question 2

Remove stop words (using the "smart" source) from critic_tokens.

You should end up with a tibble called critic_smart.

critic_smart

#> # A tibble: 2,469 x 4
#>    grade publication     date       word        
#>    <dbl> <chr>           <date>     <chr>       
#>  1   100 Pocket Gamer UK 2020-03-16 animal      
#>  2   100 Pocket Gamer UK 2020-03-16 crossing    
#>  3   100 Pocket Gamer UK 2020-03-16 horizons    
#>  4   100 Pocket Gamer UK 2020-03-16 predecessors
#>  5   100 Pocket Gamer UK 2020-03-16 operates    
#>  6   100 Pocket Gamer UK 2020-03-16 boundaries  
#>  7   100 Pocket Gamer UK 2020-03-16 games       
#>  8   100 Pocket Gamer UK 2020-03-16 tension     
#>  9   100 Pocket Gamer UK 2020-03-16 feel        
#> 10   100 Pocket Gamer UK 2020-03-16 sprinting   
#> # … with 2,459 more rows
…
Question 4

To summarise the sentiments of critic_smart, you need to:

join critic_smart with the sentiment lexicon sourced from "bing"

count the frequency of sentiment and word

arrange the frequency of words in ascending order

You should end up with a tibble called critic_sentiments.

critic_sentiments

#> # A tibble: 234 x 3
#>    sentiment word          n
#>    <chr>     <chr>     <int>
#>  1 negative  addicted      1
#>  2 negative  addicting     1
#>  3 negative  annoyance     1
#>  4 negative  archaic       1
#>  5 negative  betraying     1
#>  6 negative  bore          1
#>  7 negative  bored         1
#>  8 negative  boring        1
#>  9 negative  break         1
#> 10 negative  burden        1
#> # … with 224 more rows
…
